Categories:System
License:Apache2
Web Site:
Source Code:https://github.com/SimpleMobileTools/Simple-Calendar
Issue Tracker:https://github.com/SimpleMobileTools/Simple-Calendar/issues
Changelog:https://github.com/SimpleMobileTools/Simple-Calendar/blob/HEAD/CHANGELOG.md

Auto Name:Calendar
Summary:A simple calendar with events and a customizable widget
Description:
A monthly calendar without any other calendar integration. You can easily create
events and setup reminders.

Contains a resizable 4x4 widget where you can customize the color of the text,
as well as the alpha and the color of the background. To open the app from the
widget press the month label.

This app contains no ads or unnecessary permissions. It is fully opensource,
provides a Dark theme too.
.

Repo Type:git
Repo:https://github.com/SimpleMobileTools/Simple-Calendar

Build:1.6,7
    commit=7c920510354f9ce7a3e6ddc13b39960b50d09811
    subdir=app
    gradle=yes

Build:1.8,8
    commit=1.8
    subdir=app
    gradle=yes

Build:1.9,9
    commit=1.9
    subdir=app
    gradle=yes

Build:1.11,11
    commit=1.11
    subdir=app
    gradle=yes

Build:1.12,12
    commit=1.12
    subdir=app
    gradle=yes

Build:1.14,14
    commit=1.14
    subdir=app
    gradle=yes

Build:1.15,15
    commit=1.15
    subdir=app
    gradle=yes

Build:1.16,16
    commit=1.16
    subdir=app
    gradle=yes

Build:1.17,17
    commit=1.17
    subdir=app
    gradle=yes

Build:1.18,18
    commit=1.18
    subdir=app
    gradle=yes

Build:1.19,19
    commit=1.19
    subdir=app
    gradle=yes

Build:1.20,20
    commit=1.20
    subdir=app
    gradle=yes

Build:1.21,21
    commit=1.21
    subdir=app
    gradle=yes

Build:1.22,22
    commit=1.22
    subdir=app
    gradle=yes

Build:1.23,23
    commit=1.23
    subdir=app
    gradle=yes

Build:1.24,24
    commit=1.24
    subdir=app
    gradle=yes

Build:1.25,25
    commit=1.25
    subdir=app
    gradle=yes

Build:1.26,26
    commit=1.26
    subdir=app
    gradle=yes

Build:1.27,27
    commit=1.27
    subdir=app
    gradle=yes

Build:1.28,28
    commit=1.28
    subdir=app
    gradle=yes

Build:1.31,31
    commit=1.31
    subdir=app
    gradle=yes

Build:1.32,32
    commit=1.32
    subdir=app
    gradle=yes

Build:1.33,33
    commit=1.33
    subdir=app
    gradle=yes

Build:1.34,34
    commit=1.34
    subdir=app
    gradle=yes

Build:1.36,36
    commit=1.36
    subdir=app
    gradle=yes

Build:1.37,37
    commit=1.37
    subdir=app
    gradle=yes

Build:1.39,39
    commit=1.39
    subdir=app
    gradle=yes

Auto Update Mode:Version %v
Update Check Mode:Tags
Current Version:1.39
Current Version Code:39
